{
	"id": "6778ac6a-0aa8-464c-87ae-4f72578a9313",
	"name": "Production",
	"values": [
		{
			"key": "baseUrl",
			"value": "http://35.173.134.51:5000",
			"enabled": true
		}
	],
	"_postman_variable_scope": "environment",
	"_postman_exported_at": "2020-02-12T15:59:45.951Z",
	"_postman_exported_using": "Postman/7.16.0"
}
